[
  {
    "name": "Andromaco 95 Aniversario", 
    "description": "Interactive timeline to conmemorate the 95 anniversary of a pharmaceutical company",
    "image": "andromaco.png",
    "link": "https://andromaco-timeline.herokuapp.com/"

  },
  {
    "name": "Coloso", 
    "description": "App to create light animations on an actual giant robot",
    "image": "coloso.png",
    "link": "https://coloso-vive.herokuapp.com"
  },
  {
    "name": "Aysa Tour", 
    "description": "Virtual tour of the national water supplier museum",
    "image": "aysa.png",
    "link": "https://aysatour.herokuapp.com/"
  },
  {
    "name": "Voto por la paridad", 
    "description": "Simple fullstack app deployed on site, to leave messages related with feminism and gender issues",
    "image": "paridad.png",
    "link": "https://voto-por-la-paridad.herokuapp.com/"
  }
  ,{
    "name": "Red conceptualistas del Sur", 
    "description": "Interactive, generative and mutable visualization of a network of artists",
    "image": "rcs.png",
    "link": "https://rcs-viz.herokuapp.com/"
  }
]
